<?xml version="1.0" encoding="UTF-8" standalone="no"?>
<!-- Created with Inkscape (http://www.inkscape.org/) -->

<svg
   width="81.025261mm"
   height="75.495781mm"
   viewBox="0 0 81.025261 75.495781"
   version="1.1"
   id="svg1"
   inkscape:version="1.3.2 (091e20ef0f, 2023-11-25, custom)"
   sodipodi:docname="plane.svg"
   xmlns:inkscape="http://www.inkscape.org/namespaces/inkscape"
   xmlns:sodipodi="http://sodipodi.sourceforge.net/DTD/sodipodi-0.dtd"
   xmlns="http://www.w3.org/2000/svg"
   xmlns:svg="http://www.w3.org/2000/svg">
  <sodipodi:namedview
     id="namedview1"
     pagecolor="#505050"
     bordercolor="#ffffff"
     borderopacity="1"
     inkscape:showpageshadow="0"
     inkscape:pageopacity="0"
     inkscape:pagecheckerboard="1"
     inkscape:deskcolor="#505050"
     inkscape:document-units="mm"
     inkscape:zoom="2.9647586"
     inkscape:cx="179.10396"
     inkscape:cy="170.67157"
     inkscape:window-width="2560"
     inkscape:window-height="1416"
     inkscape:window-x="0"
     inkscape:window-y="0"
     inkscape:window-maximized="1"
     inkscape:current-layer="layer1" />
  <defs
     id="defs1">
    <marker
       style="overflow:visible"
       id="marker15"
       refX="0"
       refY="0"
       orient="auto-start-reverse"
       inkscape:stockid="Dart arrow"
       markerWidth="1"
       markerHeight="1"
       viewBox="0 0 1 1"
       inkscape:isstock="true"
       inkscape:collect="always"
       preserveAspectRatio="xMidYMid">
      <path
         style="fill:context-stroke;fill-rule:evenodd;stroke:none"
         d="M 0,0 5,-5 -12.5,0 5,5 Z"
         transform="scale(-0.5)"
         id="path15" />
    </marker>
    <marker
       style="overflow:visible"
       id="DartArrow"
       refX="0"
       refY="0"
       orient="auto-start-reverse"
       inkscape:stockid="Dart arrow"
       markerWidth="1"
       markerHeight="1"
       viewBox="0 0 1 1"
       inkscape:isstock="true"
       inkscape:collect="always"
       preserveAspectRatio="xMidYMid">
      <path
         style="fill:context-stroke;fill-rule:evenodd;stroke:none"
         d="M 0,0 5,-5 -12.5,0 5,5 Z"
         transform="scale(-0.5)"
         id="path14" />
    </marker>
    <marker
       style="overflow:visible"
       id="marker12"
       refX="0"
       refY="0"
       orient="auto-start-reverse"
       inkscape:stockid="Triangle arrow"
       markerWidth="1"
       markerHeight="1"
       viewBox="0 0 1 1"
       inkscape:isstock="true"
       inkscape:collect="always"
       preserveAspectRatio="xMidYMid">
      <path
         transform="scale(0.5)"
         style="fill:context-stroke;fill-rule:evenodd;stroke:context-stroke;stroke-width:1pt"
         d="M 5.77,0 -2.88,5 V -5 Z"
         id="path12" />
    </marker>
    <marker
       style="overflow:visible"
       id="marker10"
       refX="0"
       refY="0"
       orient="auto-start-reverse"
       inkscape:stockid="Wide arrow"
       markerWidth="1"
       markerHeight="1"
       viewBox="0 0 1 1"
       inkscape:isstock="true"
       inkscape:collect="always"
       preserveAspectRatio="xMidYMid">
      <path
         style="fill:none;stroke:context-stroke;stroke-width:1;stroke-linecap:butt"
         d="M 3,-3 0,0 3,3"
         transform="rotate(180,0.125,0)"
         sodipodi:nodetypes="ccc"
         id="path10" />
    </marker>
    <marker
       style="overflow:visible"
       id="ArrowWide"
       refX="0"
       refY="0"
       orient="auto-start-reverse"
       inkscape:stockid="Wide arrow"
       markerWidth="1"
       markerHeight="1"
       viewBox="0 0 1 1"
       inkscape:isstock="true"
       inkscape:collect="always"
       preserveAspectRatio="xMidYMid">
      <path
         style="fill:none;stroke:context-stroke;stroke-width:1;stroke-linecap:butt"
         d="M 3,-3 0,0 3,3"
         transform="rotate(180,0.125,0)"
         sodipodi:nodetypes="ccc"
         id="path9" />
    </marker>
    <marker
       style="overflow:visible"
       id="Triangle"
       refX="0"
       refY="0"
       orient="auto-start-reverse"
       inkscape:stockid="Triangle arrow"
       markerWidth="1"
       markerHeight="1"
       viewBox="0 0 1 1"
       inkscape:isstock="true"
       inkscape:collect="always"
       preserveAspectRatio="xMidYMid">
      <path
         transform="scale(0.5)"
         style="fill:context-stroke;fill-rule:evenodd;stroke:context-stroke;stroke-width:1pt"
         d="M 5.77,0 -2.88,5 V -5 Z"
         id="path135" />
    </marker>
    <marker
       style="overflow:visible"
       id="ArrowWide-2"
       refX="0"
       refY="0"
       orient="auto-start-reverse"
       inkscape:stockid="Wide arrow"
       markerWidth="1"
       markerHeight="1"
       viewBox="0 0 1 1"
       inkscape:isstock="true"
       inkscape:collect="always"
       preserveAspectRatio="xMidYMid">
      <path
         style="fill:none;stroke:context-stroke;stroke-width:1;stroke-linecap:butt"
         d="M 3,-3 0,0 3,3"
         transform="rotate(180,0.125,0)"
         sodipodi:nodetypes="ccc"
         id="path9-7" />
    </marker>
    <marker
       style="overflow:visible"
       id="marker10-0"
       refX="0"
       refY="0"
       orient="auto-start-reverse"
       inkscape:stockid="Wide arrow"
       markerWidth="1"
       markerHeight="1"
       viewBox="0 0 1 1"
       inkscape:isstock="true"
       inkscape:collect="always"
       preserveAspectRatio="xMidYMid">
      <path
         style="fill:none;stroke:context-stroke;stroke-width:1;stroke-linecap:butt"
         d="M 3,-3 0,0 3,3"
         transform="rotate(180,0.125,0)"
         sodipodi:nodetypes="ccc"
         id="path10-9" />
    </marker>
  </defs>
  <g
     inkscape:label="Layer 1"
     inkscape:groupmode="layer"
     id="layer1"
     transform="translate(-0.35312169,-0.2375738)">
    <path
       style="fill:none;stroke:#000000;stroke-width:0.216383px;stroke-linecap:butt;stroke-linejoin:miter;stroke-opacity:1;marker-start:url(#ArrowWide);marker-end:url(#ArrowWide)"
       d="M 0.56022332,63.982167 H 81.171284"
       id="path1" />
    <path
       style="fill:none;stroke:#000000;stroke-width:0.264583px;stroke-linecap:butt;stroke-linejoin:miter;stroke-opacity:1;marker-start:url(#ArrowWide);marker-end:url(#ArrowWide)"
       d="M 13.62216,0.49080798 V 75.480122"
       id="path2" />
    <path
       style="fill:none;stroke:#000000;stroke-width:0.265;stroke-linecap:butt;stroke-linejoin:miter;stroke-dasharray:none;stroke-opacity:1;marker-start:url(#DartArrow);marker-end:url(#marker15)"
       d="M 12.006116,8.1607098 71.240224,67.394816"
       id="path3" />
    <path
       style="fill:none;stroke:#000000;stroke-width:0.265;stroke-linecap:butt;stroke-linejoin:miter;stroke-dasharray:none;stroke-dashoffset:0;stroke-opacity:1;marker-end:url(#Triangle)"
       d="m 30.911847,26.942292 8.636677,-8.636675"
       id="path4" />
    <circle
       style="fill:#ff0000;fill-rule:evenodd;stroke-width:0.264583"
       id="path5"
       cx="27.47897"
       cy="44.503632"
       r="0.82305044" />
    <circle
       style="fill:#0000ff;fill-rule:evenodd;stroke-width:0.264583"
       id="path5-2"
       cx="53.994526"
       cy="42.615078"
       r="0.82305044" />
    <circle
       style="fill:#00ff0c;fill-opacity:1;fill-rule:evenodd;stroke-width:0.264583"
       id="path5-5"
       cx="56.835163"
       cy="52.90313"
       r="0.82305044" />
    <circle
       style="fill:#00ff0c;fill-opacity:1;fill-rule:evenodd;stroke-width:0.264583"
       id="path5-5-5"
       cx="65.256149"
       cy="61.31749"
       r="0.82305044" />
    <path
       style="fill:none;stroke:#000000;stroke-width:0.222922px;stroke-linecap:butt;stroke-linejoin:miter;stroke-opacity:1;marker-end:url(#marker12)"
       d="M 13.567746,63.93225 55.465791,53.4704"
       id="path6" />
    <path
       style="fill:none;stroke:#0000ff;stroke-width:0.29382;stroke-linecap:butt;stroke-linejoin:miter;stroke-dasharray:1.17528, 0.29382;stroke-dashoffset:0;stroke-opacity:1;marker-start:url(#ArrowWide-2);marker-end:url(#marker10-0)"
       d="M 13.884838,63.809445 44.384194,33.089153"
       id="path7-6" />
    <path
       style="fill:#000000;stroke:#000000;stroke-width:0.257458;stroke-linecap:butt;stroke-linejoin:miter;stroke-dasharray:1.02983, 0.257458;stroke-dashoffset:0;stroke-opacity:1;marker-start:url(#ArrowWide);marker-end:url(#marker10)"
       d="M 13.826278,63.923992 40.528654,36.98284"
       id="path7" />
    <text
       xml:space="preserve"
       style="font-style:normal;font-weight:normal;font-size:3.52778px;line-height:1.25;font-family:sans-serif;fill:#000000;fill-opacity:1;stroke:none;stroke-width:0.264583"
       x="31.852467"
       y="20.363535"
       id="text7"><tspan
         sodipodi:role="line"
         id="tspan7"
         style="font-size:3.52778px;stroke-width:0.264583"
         x="31.852467"
         y="20.363535">N</tspan></text>
    <text
       xml:space="preserve"
       style="font-style:normal;font-weight:normal;font-size:3.52778px;line-height:1.25;font-family:sans-serif;fill:#000000;fill-opacity:1;stroke:none;stroke-width:0.264583"
       x="38.340572"
       y="43.198215"
       id="text8"><tspan
         sodipodi:role="line"
         id="tspan8"
         style="font-size:3.52778px;stroke-width:0.264583"
         x="38.340572"
         y="43.198215">d</tspan></text>
    <text
       xml:space="preserve"
       style="font-style:normal;font-weight:normal;font-size:3.52778px;line-height:1.25;font-family:sans-serif;fill:#000000;fill-opacity:1;stroke:none;stroke-width:0.264583"
       x="21.310345"
       y="49.994431"
       id="text8-6"><tspan
         sodipodi:role="line"
         id="tspan8-1"
         style="font-size:3.52778px;fill:#ff0000;stroke-width:0.264583"
         x="21.310345"
         y="49.994431">d1</tspan></text>
    <text
       xml:space="preserve"
       style="font-style:normal;font-weight:normal;font-size:3.52778px;line-height:1.25;font-family:sans-serif;fill:#0000ff;fill-opacity:1;stroke:none;stroke-width:0.264583"
       x="38.552898"
       y="33.369213"
       id="text8-6-2"><tspan
         sodipodi:role="line"
         id="tspan8-1-0"
         style="font-size:3.52778px;fill:#0000ff;stroke-width:0.264583"
         x="38.552898"
         y="33.369213">d2</tspan></text>
    <text
       xml:space="preserve"
       style="font-style:normal;font-weight:normal;font-size:3.52778px;line-height:1.25;font-family:sans-serif;fill:#000000;fill-opacity:1;stroke:none;stroke-width:0.264583"
       x="55.860767"
       y="57.981369"
       id="text9"><tspan
         sodipodi:role="line"
         id="tspan9"
         style="font-size:3.52778px;stroke-width:0.264583"
         x="55.860767"
         y="57.981369">Q</tspan></text>
    <text
       xml:space="preserve"
       style="font-style:normal;font-weight:normal;font-size:3.52778px;line-height:1.25;font-family:sans-serif;fill:#000000;fill-opacity:1;stroke:none;stroke-width:0.264583"
       x="66.812927"
       y="61.797298"
       id="text9-29"><tspan
         sodipodi:role="line"
         id="tspan9-1"
         style="font-size:3.52778px;stroke-width:0.264583"
         x="66.812927"
         y="61.797298">P</tspan></text>
    <text
       xml:space="preserve"
       style="font-style:normal;font-weight:normal;font-size:3.52778px;line-height:1.25;font-family:sans-serif;fill:#000000;fill-opacity:1;stroke:none;stroke-width:0.264583"
       x="10.035007"
       y="67.74881"
       id="text9-2"><tspan
         sodipodi:role="line"
         id="tspan9-93"
         style="font-size:3.52778px;stroke-width:0.264583"
         x="10.035007"
         y="67.74881">O</tspan></text>
    <text
       xml:space="preserve"
       style="font-style:normal;font-weight:normal;font-size:3.52778px;line-height:1.25;font-family:sans-serif;fill:#000000;fill-opacity:1;stroke:none;stroke-width:0.264583"
       x="22.407436"
       y="43.017498"
       id="text9-5"><tspan
         sodipodi:role="line"
         id="tspan9-9"
         style="font-size:3.52778px;stroke-width:0.264583"
         x="22.407436"
         y="43.017498">P1</tspan></text>
    <text
       xml:space="preserve"
       style="font-style:normal;font-weight:normal;font-size:3.52778px;line-height:1.25;font-family:sans-serif;fill:#000000;fill-opacity:1;stroke:none;stroke-width:0.264583"
       x="53.792225"
       y="39.783321"
       id="text9-5-9"><tspan
         sodipodi:role="line"
         id="tspan9-9-7"
         style="font-size:3.52778px;stroke-width:0.264583"
         x="53.792225"
         y="39.783321">P2</tspan></text>
    <path
       style="fill:#ff8080;stroke:#c83737;stroke-width:0.268;stroke-linecap:butt;stroke-linejoin:miter;stroke-dasharray:1.072, 0.268;stroke-dashoffset:0;stroke-opacity:1;marker-start:url(#marker10);marker-end:url(#marker10)"
       d="M 13.832437,63.872718 30.718968,46.861641"
       id="path13" />
    <text
       xml:space="preserve"
       style="font-style:normal;font-weight:normal;font-size:3.175px;line-height:1.25;font-family:sans-serif;fill:#000000;fill-opacity:1;stroke:none;stroke-width:0.264583"
       x="17.737835"
       y="11.863038"
       id="text13"><tspan
         sodipodi:role="line"
         id="tspan13"
         style="font-size:3.175px;stroke-width:0.264583"
         x="17.737835"
         y="11.863038">Plane</tspan></text>
    <path
       style="fill:none;stroke:#000000;stroke-width:0.246751px;stroke-linecap:butt;stroke-linejoin:miter;stroke-opacity:1;marker-end:url(#Triangle)"
       d="m 57.432445,53.535969 6.634215,6.709683"
       id="path8" />
  </g>
</svg>
